…
``` r
Mr_Trash_Wheel <- MrTrashdata %>%
  mutate(wheel_name = "Mr. Trash Wheel")
Professor_Trash_Wheel <- ProTrashdata %>%
  mutate(wheel_name = "Professor Trash Wheel")
Gwynna_Trash_Wheel <- Gwyndata %>%
  mutate(wheel_name = "Gwynna Trash Wheel")
Mr_Trash_Wheel$year <- as.numeric(Mr_Trash_Wheel$year)
Professor_Trash_Wheel$year <- as.numeric(Professor_Trash_Wheel$year)
Gwynna_Trash_Wheel$year <- as.numeric(Gwynna_Trash_Wheel$year)
combined <- bind_rows(Mr_Trash_Wheel, Professor_Trash_Wheel, Gwynna_Trash_Wheel)
drop_na(combined)
```

    ## # A tibble: 584 × 15
    ##    dumpster month  year date  weight_tons volume_cubic_yards plastic_bottles
    ##       <dbl> <chr> <dbl> <chr>       <dbl>              <dbl>           <dbl>
    ##  1        1 May    2014 16           4.31                 18            1450
    ##  2        2 May    2014 16           2.74                 13            1120
    ##  3        3 May    2014 16           3.45                 15            2450
    ##  4        4 May    2014 17           3.1                  15            2380
    ##  5        5 May    2014 17           4.06                 18             980
    ##  6        6 May    2014 20           2.71                 13            1430
    ##  7        7 May    2014 21           1.91                  8             910
    ##  8        8 May    2014 28           3.7                  16            3580
    ##  9        9 June   2014 05           2.52                 14            2400
    ## 10       10 June   2014 11           3.76                 18            1340
    ## # ℹ 574 more rows
    ## # ℹ 8 more variables: polystyrene <dbl>, cigarette_butts <dbl>,
    ## #   glass_bottles <dbl>, plastic_bags <dbl>, wrappers <dbl>,
    ## #   sports_balls <dbl>, homes_powered <dbl>, wheel_name <chr>
…
